{
    "cover": "https://iili.io/fnZhpn.jpg",
    "title": "Twins Mother",
    "genre": "Milf, Cheating, Incest",
    "author": "Chanpon Miyabi",
    "language": "Indonesia",
    "status": "Complete",
    "images": [
      "https://iili.io/fnZhpn.jpg",
      "https://iili.io/fnZNhG.jpg",
      "https://iili.io/fnZwIs.jpg",
      "https://iili.io/fnZXkX.jpg",
      "https://iili.io/fnZOQf.jpg",
      "https://iili.io/fnZkB4.jpg",
      "https://iili.io/fnZvEl.jpg",
      "https://iili.io/fnZ842.jpg",
      "https://iili.io/fnZU2S.jpg",
      "https://iili.io/fnZgY7.jpg",
      "https://iili.io/fnZrv9.jpg",
      "https://iili.io/fnZ4pe.jpg",
      "https://iili.io/fnZPTu.jpg",
      "https://iili.io/fnZihb.jpg",
      "https://iili.io/fnZsQj.jpg",
      "https://iili.io/fnZQCx.jpg",
      "https://iili.io/fnZZEQ.jpg",
      "https://iili.io/fnZt4V.jpg",
      "https://iili.io/fnZb3B.jpg",
      "https://iili.io/fnZmYP.jpg",
      "https://iili.io/fnZpv1.jpg",
      "https://iili.io/fnZyyF.jpg",
      "https://iili.io/fntHTg.jpg",
      "https://iili.io/fntJja.jpg",
      "https://iili.io/fntdZJ.jpg",
      "https://iili.io/fnt3Cv.jpg",
      "https://iili.io/fntFGR.jpg",
      "https://iili.io/fntK4p.jpg",
      "https://iili.io/fntq3N.jpg",
      "https://iili.io/fntBaI.jpg",
      "https://iili.io/fntCvt.jpg",
      "https://iili.io/fntnyX.jpg",
      "https://iili.io/fntxun.jpg",
      "https://iili.io/fntzjs.jpg",
      "https://iili.io/fntIZG.jpg",
      "https://iili.io/fntunf.jpg",
      "https://iili.io/fntAG4.jpg",
      "https://iili.io/fntR6l.jpg",
      "https://iili.io/fnt7F2.jpg",
      "https://iili.io/fntYaS.jpg",
      "https://iili.io/fnta87.jpg",
      "https://iili.io/fntl99.jpg",
      "https://iili.io/fnt0ue.jpg",
      "https://iili.io/fntxun.jpg",
      "https://iili.io/fntEZb.jpg",
      "https://iili.io/fntMnj.jpg",
      "https://iili.io/fntVMx.jpg",
      "https://iili.io/fntW6Q.jpg",
      "https://iili.io/fnthFV.jpg",
      "https://iili.io/fntjcB.jpg",
      "https://iili.io/fntw8P.jpg",
      "https://iili.io/fntO91.jpg",
      "https://iili.io/fnteAF.jpg",
      "https://iili.io/fntkwg.jpg",
      "https://iili.io/fntvta.jpg",
      "https://iili.io/fntSoJ.jpg",
      "https://iili.io/fntUMv.jpg",
      "https://iili.io/fntgPR.jpg",
      "https://iili.io/fnt4Fp.jpg",
      "https://iili.io/fnt6cN.jpg",
      "https://iili.io/fntPSI.jpg",
      "https://iili.io/fnts9t.jpg",
      "https://iili.io/fntLAX.jpg",
      "https://iili.io/fntQNn.jpg",
      "https://iili.io/fntZts.jpg",
      "https://iili.io/fntDoG.jpg",
      "https://iili.io/fntbVf.jpg",
      "https://iili.io/fntmP4.jpg",
      "https://iili.io/fntyKl.jpg",
      "https://iili.io/fnD9l2.jpg",
      "https://iili.io/fnDHSS.jpg",
      "https://iili.io/fnDdH7.jpg",
      "https://iili.io/fnD2R9.jpg",
      "https://iili.io/fnD3Ne.jpg",
      "https://iili.io/fnDFDu.jpg",
      "https://iili.io/fnDfob.jpg",
      "https://iili.io/fnDqVj.jpg",
      "https://iili.io/fnDBix.jpg",
      "https://iili.io/fnDnKQ.jpg",
      "https://iili.io/fnDolV.jpg",
      "https://iili.io/fnDxUB.jpg",
      "https://iili.io/fnDIHP.jpg",
      "https://iili.io/fnDTR1.jpg",
      "https://iili.io/fnDuOF.jpg",
      "https://iili.io/fnDADg.jpg",
      "https://iili.io/fnD5xa.jpg",
      "https://iili.io/fnD7WJ.jpg",
      "https://iili.io/fnDYiv.jpg",
      "https://iili.io/fnDcfR.jpg",
      "https://iili.io/fnDllp.jpg",
      "https://iili.io/fnD0UN.jpg",
      "https://iili.io/fnDEJI.jpg",
      "https://iili.io/fnDGRt.jpg",
      "https://iili.io/fnDMOX.jpg",
      "https://iili.io/fnDVbn.jpg",
      "https://iili.io/fnDXxs.jpg",
      "https://iili.io/fnDhWG.jpg",
      "https://iili.io/fnDjsf.jpg",
      "https://iili.io/fnDNf4.jpg",
      "https://iili.io/fnDO0l.jpg",
      "https://iili.io/fnDeg2.jpg",
      "https://iili.io/fnDvJS.jpg",
      "https://iili.io/fnD857.jpg",
      "https://iili.io/fnDSe9.jpg",
      "https://iili.io/fnDUbe.jpg",
      "https://iili.io/fnDrzu.jpg",
      "https://iili.io/fnD4Wb.jpg",
      "https://iili.io/fnD6sj.jpg",
      "https://iili.io/fnDiqx.jpg",
      "https://iili.io/fnDs0Q.jpg",
      "https://iili.io/fnDLgV.jpg",
      "https://iili.io/fnDZdB.jpg",
      "https://iili.io/fnDt5P.jpg",
      "https://iili.io/fnDDe1.jpg",
      "https://iili.io/fnDbmF.jpg",
      "https://iili.io/fnDpzg.jpg",
      "https://iili.io/fnDyXa.jpg",
      "https://iili.io/fnb9LJ.jpg",
      "https://iili.io/fnbJqv.jpg",
      "https://iili.io/fnbd1R.jpg",
      "https://iili.io/fnb2gp.jpg",
      "https://iili.io/fnbFdN.jpg",
      "https://iili.io/fnbK7I.jpg",
      "https://iili.io/fnbfet.jpg",
      "https://iili.io/fnbqmX.jpg",
      "https://iili.io/fnbCIn.jpg",
      "https://iili.io/fnbnXs.jpg",
      "https://iili.io/fnboLG.jpg",
      "https://iili.io/fnbzBf.jpg",
      "https://iili.io/fnbI14.jpg",
      "https://iili.io/fnbTrl.jpg",
      "https://iili.io/fnbA22.jpg",
      "https://iili.io/fnbR7S.jpg",
      "https://iili.io/fnb5k7.jpg",
      "https://iili.io/fnb7p9.jpg",
      "https://iili.io/fnbaIe.jpg",
      "https://iili.io/fnbchu.jpg",
      "https://iili.io/fnblLb.jpg",
      "https://iili.io/fnb1Bj.jpg",
      "https://iili.io/fnbEEx.jpg",
      "https://iili.io/fnbGrQ.jpg",
      "https://iili.io/fnbV2V.jpg",
      "https://iili.io/fnbWYB.jpg",
      "https://iili.io/fnbXkP.jpg",
      "https://iili.io/fnbhp1.jpg",
      "https://iili.io/fnbwTF.jpg",
      "https://iili.io/fnbNhg.jpg",
      "https://iili.io/fnbOQa.jpg",
      "https://iili.io/fnbkCJ.jpg",
      "https://iili.io/fnbvEv.jpg",
      "https://iili.io/fnb84R.jpg",
      "https://iili.io/fnbU2p.jpg",
      "https://iili.io/fnbgYN.jpg",
      "https://iili.io/fnbrvI.jpg",
      "https://iili.io/fnb4pt.jpg",
      "https://iili.io/fnbPTX.jpg",
      "https://iili.io/fnbijn.jpg",
      "https://iili.io/fnbsQs.jpg",
      "https://iili.io/fnbQCG.jpg",
      "https://iili.io/fnbZGf.jpg",
      "https://iili.io/fnbt44.jpg",
      "https://iili.io/fnbb3l.jpg",
      "https://iili.io/fnbma2.jpg",
      "https://iili.io/fnbpvS.jpg",
      "https://iili.io/fnbyy7.jpg",
      "https://iili.io/fnmHu9.jpg",
      "https://iili.io/fnmJje.jpg",
      "https://iili.io/fnmdZu.jpg",
      "https://iili.io/fnm3Cb.jpg",
      "https://iili.io/fnmFGj.jpg",
      "https://iili.io/fnmK6x.jpg",
      "https://iili.io/fnmq3Q.jpg",
      "https://iili.io/fnmBaV.jpg",
      "https://iili.io/fnmC8B.jpg",
      "https://iili.io/fnmnyP.jpg",
      "https://iili.io/fnmxu1.jpg",
      "https://iili.io/fnmzwF.jpg",
      "https://iili.io/fnmIZg.jpg",
      "https://iili.io/fnmuna.jpg",
      "https://iili.io/fnmAMJ.jpg",
      "https://iili.io/fnmR6v.jpg",
      "https://iili.io/fnm7FR.jpg",
      "https://iili.io/fnmYap.jpg",
      "https://iili.io/fnma8N.jpg",
      "https://iili.io/fnml9I.jpg",
      "https://iili.io/fnm0ut.jpg",
      "https://iili.io/fnm1wX.jpg",
      "https://iili.io/fnmEtn.jpg",
      "https://iili.io/fnmMns.jpg",
      "https://iili.io/fnmVMG.jpg"
    ]
  }