{
  "cover": "https://iili.io/fH5Tn1.jpg",
  "title": "Hitozuma",
  "author": "Karuma Tatsurou",
  "release_date": "2011-10",
  "language": "Indonesia",
  "status": "Complete",
  "images": [
    "https://iili.io/fH5Tn1.jpg",
    "https://iili.io/fH5uMF.jpg",
    "https://iili.io/fH5zZP.jpg",
    "https://iili.io/fH5xwB.jpg",
    "https://iili.io/fH5A6g.jpg",
    "https://iili.io/fH55Fa.jpg",
    "https://iili.io/fH57cJ.jpg",
    "https://iili.io/fH5Y8v.jpg",
    "https://iili.io/fH5c9R.jpg",
    "https://iili.io/fH5lup.jpg",
    "https://iili.io/fH50wN.jpg",
    "https://iili.io/fH51tI.jpg",
    "https://iili.io/fH5Gnt.jpg",
    "https://iili.io/fH5MMX.jpg",
    "https://iili.io/fH5VPn.jpg",
    "https://iili.io/fH5XFs.jpg",
    "https://iili.io/fH5hcG.jpg",
    "https://iili.io/fH5jSf.jpg",
    "https://iili.io/fH5N94.jpg",
    "https://iili.io/fH5OAl.jpg",
    "https://iili.io/fH5eN2.jpg",
    "https://iili.io/fH5ktS.jpg",
    "https://iili.io/fH58o7.jpg",
    "https://iili.io/fH5SV9.jpg",
    "https://iili.io/fH5UPe.jpg",
    "https://iili.io/fH5rKu.jpg",
    "https://iili.io/fH54cb.jpg",
    "https://iili.io/fH56Sj.jpg",
    "https://iili.io/fH5iHx.jpg",
    "https://iili.io/fH5sAQ.jpg",
    "https://iili.io/fH5LNV.jpg",
    "https://iili.io/fH5QDB.jpg",
    "https://iili.io/fH5toP.jpg",
    "https://iili.io/fH5DV1.jpg",
    "https://iili.io/fH5biF.jpg",
    "https://iili.io/fH5pKg.jpg",
    "https://iili.io/fH5yla.jpg",
    "https://iili.io/fH79UJ.jpg",
    "https://iili.io/fH7JHv.jpg",
    "https://iili.io/fH7dRR.jpg",
    "https://iili.io/fH72Np.jpg",
    "https://iili.io/fH73DN.jpg",
    "https://iili.io/fH7KxI.jpg",
    "https://iili.io/fH7fVt.jpg",
    "https://iili.io/fH7qiX.jpg",
    "https://iili.io/fH7Cfn.jpg",
    "https://iili.io/fH7nls.jpg",
    "https://iili.io/fH7oUG.jpg",
    "https://iili.io/fH7zJf.jpg",
    "https://iili.io/fH7IR4.jpg",
    "https://iili.io/fH7TOl.jpg",
    "https://iili.io/fH7ub2.jpg",
    "https://iili.io/fH7RxS.jpg",
    "https://iili.io/fH75W7.jpg",
    "https://iili.io/fH77s9.jpg",
    "https://iili.io/fH7afe.jpg",
    "https://iili.io/fH7c0u.jpg",
    "https://iili.io/fH7lUb.jpg",
    "https://iili.io/fH71Jj.jpg",
    "https://iili.io/fH7E5x.jpg",
    "https://iili.io/fH7GOQ.jpg",
    "https://iili.io/fH7MbV.jpg",
    "https://iili.io/fH7WzB.jpg",
    "https://iili.io/fH7XWP.jpg",
    "https://iili.io/fH7hs1.jpg",
    "https://iili.io/fH7N0g.jpg",
    "https://iili.io/fH7Oga.jpg",
    "https://iili.io/fH7kdJ.jpg",
    "https://iili.io/fH7v5v.jpg",
    "https://iili.io/fH78eR.jpg",
    "https://iili.io/fH7rXI.jpg",
    "https://iili.io/fH7PqX.jpg",
    "https://iili.io/fH7i1n.jpg",
    "https://iili.io/fH7sgs.jpg",
    "https://iili.io/fH7QdG.jpg",
    "https://iili.io/fH7Z7f.jpg",
    "https://iili.io/fH7te4.jpg",
    "https://iili.io/fH7Dml.jpg",
    "https://iili.io/fH7mI2.jpg",
    "https://iili.io/fH7pXS.jpg",
    "https://iili.io/fH7yL7.jpg",
    "https://iili.io/fHYHB9.jpg",
    "https://iili.io/fHYJ1e.jpg",
    "https://iili.io/fHYdru.jpg",
    "https://iili.io/fHY3db.jpg",
    "https://iili.io/fHYF7j.jpg",
    "https://iili.io/fHYKkx.jpg",
    "https://iili.io/fHYfmQ.jpg",
    "https://iili.io/fHYBIV.jpg",
    "https://iili.io/fHYChB.jpg",
    "https://iili.io/fHYnLP.jpg",
    "https://iili.io/fHYxB1.jpg",
    "https://iili.io/fHYzEF.jpg",
    "https://iili.io/fHYIrg.jpg",
    "https://iili.io/fHYu2a.jpg",
    "https://iili.io/fHYAYJ.jpg",
    "https://iili.io/fHYRkv.jpg",
    "https://iili.io/fHY5pR.jpg",
    "https://iili.io/fHYYIp.jpg",
    "https://iili.io/fHYahN.jpg",
    "https://iili.io/fHYcQI.jpg",
    "https://iili.io/fHY0Bt.jpg",
    "https://iili.io/fHY1EX.jpg",
    "https://iili.io/fHYE4n.jpg",
    "https://iili.io/fHYM2s.jpg",
    "https://iili.io/fHYVYG.jpg",
    "https://iili.io/fHYWvf.jpg",
    "https://iili.io/fHYXp4.jpg",
    "https://iili.io/fHYjTl.jpg",
    "https://iili.io/fHYwj2.jpg",
    "https://iili.io/fHYNQS.jpg",
    "https://iili.io/fHYeC7.jpg",
    "https://iili.io/fHYkG9.jpg",
    "https://iili.io/fHYv4e.jpg",
    "https://iili.io/fHYS3u.jpg",
    "https://iili.io/fHYUYb.jpg",
    "https://iili.io/fHYgvj.jpg",
    "https://iili.io/fHYryx.jpg",
    "https://iili.io/fHY6TQ.jpg",
    "https://iili.io/fHYPjV.jpg",
    "https://iili.io/fHYiZB.jpg",
    "https://iili.io/fHYLCP.jpg",
    "https://iili.io/fHYQG1.jpg",
    "https://iili.io/fHYZ6F.jpg",
    "https://iili.io/fHYD3g.jpg",
    "https://iili.io/fHYbaa.jpg",
    "https://iili.io/fHYm8J.jpg",
    "https://iili.io/fHYpyv.jpg",
    "https://iili.io/fHa9uR.jpg",
    "https://iili.io/fHaHjp.jpg",
    "https://iili.io/fHaJZN.jpg",
    "https://iili.io/fHa2nI.jpg",
    "https://iili.io/fHa3Gt.jpg",
    "https://iili.io/fHaF6X.jpg",
    "https://iili.io/fHafFn.jpg",
    "https://iili.io/fHaqas.jpg",
    "https://iili.io/fHaB8G.jpg",
    "https://iili.io/fHan9f.jpg",
    "https://iili.io/fHaou4.jpg",
    "https://iili.io/fHaxwl.jpg",
    "https://iili.io/fHazt2.jpg",
    "https://iili.io/fHaTnS.jpg",
    "https://iili.io/fHauM7.jpg",
    "https://iili.io/fHaAP9.jpg",
    "https://iili.io/fHa5Fe.jpg",
    "https://iili.io/fHa7cu.jpg",
    "https://iili.io/fHaY8b.jpg",
    "https://iili.io/fHac9j.jpg",
    "https://iili.io/fHalAx.jpg",
    "https://iili.io/fHa0wQ.jpg",
    "https://iili.io/fHa1tV.jpg",
    "https://iili.io/fHaGoB.jpg",
    "https://iili.io/fHaMMP.jpg",
    "https://iili.io/fHaVP1.jpg",
    "https://iili.io/fHaXKF.jpg",
    "https://iili.io/fHahcg.jpg",
    "https://iili.io/fHajSa.jpg",
    "https://iili.io/fHaNHJ.jpg",
    "https://iili.io/fHaOAv.jpg",
    "https://iili.io/fHaeNR.jpg",
    "https://iili.io/fHaktp.jpg",
    "https://iili.io/fHa8oN.jpg",
    "https://iili.io/fHaSVI.jpg",
    "https://iili.io/fHaUPt.jpg",
    "https://iili.io/fHarKX.jpg",
    "https://iili.io/fHa4ln.jpg",
    "https://iili.io/fHa6Ss.jpg",
    "https://iili.io/fHaiHG.jpg",
    "https://iili.io/fHasRf.jpg",
    "https://iili.io/fHaLN4.jpg",
    "https://iili.io/fHaQDl.jpg",
    "https://iili.io/fHatx2.jpg",
    "https://iili.io/fHaDVS.jpg",
    "https://iili.io/fHabi7.jpg",
    "https://iili.io/fHapf9.jpg",
    "https://iili.io/fHayle.jpg",
    "https://iili.io/fHc9Uu.jpg",
    "https://iili.io/fHcJHb.jpg",
    "https://iili.io/fHcdRj.jpg",
    "https://iili.io/fHc2Ox.jpg",
    "https://iili.io/fHc3DQ.jpg",
    "https://iili.io/fHcKxV.jpg",
    "https://iili.io/fHcfWB.jpg",
    "https://iili.io/fHcqiP.jpg",
    "https://iili.io/fHcCf1.jpg",
    "https://iili.io/fHcoUg.jpg",
    "https://iili.io/fHczJa.jpg",
    "https://iili.io/fHcI5J.jpg",
    "https://iili.io/fHcTOv.jpg",
    "https://iili.io/fHcubR.jpg",
    "https://iili.io/fHcRxp.jpg",
    "https://iili.io/fHc5WN.jpg",
    "https://iili.io/fHc7sI.jpg",
    "https://iili.io/fHcaft.jpg",
    "https://iili.io/fHcc0X.jpg",
    "https://iili.io/fHclgn.jpg",
    "https://iili.io/fHc1Js.jpg",
    "https://iili.io/fHcE5G.jpg",
    "https://iili.io/fHcGef.jpg",
    "https://iili.io/fHcMb4.jpg",
    "https://iili.io/fHcWzl.jpg",
    "https://iili.io/fHcXX2.jpg",
    "https://iili.io/fHchsS.jpg",
    "https://iili.io/fHcwq7.jpg",
    "https://iili.io/fHcN19.jpg",
    "https://iili.io/fHcOge.jpg",
    "https://iili.io/fHckdu.jpg",
    "https://iili.io/fHcv5b.jpg",
    "https://iili.io/fHc8ej.jpg",
    "https://iili.io/fHcSmx.jpg",
    "https://iili.io/fHcgzQ.jpg",
    "https://iili.io/fHcrXV.jpg",
    "https://iili.io/fHc4LB.jpg",
    "https://iili.io/fHcPqP.jpg",
    "https://iili.io/fHci11.jpg",
    "https://iili.io/fHcsrF.jpg",
    "https://iili.io/fHcQdg.jpg",
    "https://iili.io/fHcZ7a.jpg",
    "https://iili.io/fHctkJ.jpg",
    "https://iili.io/fHcDmv.jpg",
    "https://iili.io/fHcmIR.jpg",
    "https://iili.io/fHcpXp.jpg",
    "https://iili.io/fHcyLN.jpg",
    "https://iili.io/fHlHBI.jpg",
    "https://iili.io/fHlJ1t.jpg",
    "https://iili.io/fHldrX.jpg",
    "https://iili.io/fHl32n.jpg",
    "https://iili.io/fHlF7s.jpg",
    "https://iili.io/fHlKkG.jpg",
    "https://iili.io/fHlfpf.jpg"
  ]
}
